…
calc_incidence(injd)
#> Warning: 
#>  Exposure time unit is matches_minutes
#>  Case incidence and case burden are calculated per 100 athlete-matches of exposure (i.e. 90 minutes times 100)
#> 
#> # A tibble: 1 × 6
#>   totalexpo ncases incidence incidence_sd incidence_lower incidence_upper
#>       <dbl>  <dbl>     <dbl>        <dbl>           <dbl>           <dbl>
#> 1     74690     82      9.88         1.09            7.74            12.0
calc_incidence(injd, overall = FALSE)
#> Warning: 
#>  Exposure time unit is matches_minutes
#>  Case incidence and case burden are calculated per 100 athlete-matches of exposure (i.e. 90 minutes times 100)
#> 
#> # A tibble: 28 × 7
#>    person_id             totalexpo ncases incidence incidence_sd incidence_lower
#>    <fct>                     <dbl>  <dbl>     <dbl>        <dbl>           <dbl>
#>  1 adam-lallana                700      6     77.1         31.5            15.4 
#>  2 alberto-moreno             1264      1      7.12         7.12           -6.84
#>  3 alex-oxlade-chamberl…      1483      1      6.07         6.07           -5.83
#>  4 alisson                    3420      0      0            0               0   
#>  5 andrew-robertson           5162      5      8.72         3.90            1.08
#>  6 daniel-sturridge            927      3     29.1         16.8            -3.83
#>  7 danny-ings                  265      0      0            0               0   
#>  8 dejan-lovren               3109      6     17.4          7.09            3.47
#>  9 divock-origi                366      1     24.6         24.6           -23.6 
#> 10 dominic-solanke             581      0      0            0               0   
#> # ℹ 18 more rows
#> # ℹ 1 more variable: incidence_upper <dbl>
…
