Calculate case burden rate — calc_burden • injurytools
…
calc_burden(injd)
#> Warning: 
#>   Exposure time unit is matches_minutes
#>   Case incidence and case burden are calculated per 100 athlete-matches of exposure (i.e. 90 minutes times 100)
#> 
#> # A tibble: 1 × 6
#>   totalexpo ndayslost burden burden_sd burden_lower burden_upper
#>       <dbl>     <dbl>  <dbl>     <dbl>        <dbl>        <dbl>
#> 1     74690      2049   247.      5.45         236.         258.
calc_burden(injd, overall = FALSE)
#> Warning: 
#>   Exposure time unit is matches_minutes
#>   Case incidence and case burden are calculated per 100 athlete-matches of exposure (i.e. 90 minutes times 100)
#> 
#> # A tibble: 28 × 7
#>    person_id      totalexpo ndayslost burden burden_sd burden_lower burden_upper
#>    <fct>              <dbl>     <dbl>  <dbl>     <dbl>        <dbl>        <dbl>
#>  1 adam-lallana         700       302 3883.     223.         3445.        4321. 
#>  2 alberto-moreno      1264        50  356.      50.3         257.         455. 
#>  3 alex-oxlade-c…      1483       316 1918.     108.         1706.        2129. 
#>  4 alisson             3420         0    0        0             0            0  
#>  5 andrew-robert…      5162        22   38.4      8.18         22.3         54.4
#>  6 daniel-sturri…       927       122 1184.     107.          974.        1395. 
#>  7 danny-ings           265         0    0        0             0            0  
#>  8 dejan-lovren        3109       160  463.      36.6         391.         535. 
#>  9 divock-origi         366         5  123.      55.0          15.2        231. 
#> 10 dominic-solan…       581         0    0        0             0            0  
#> # ℹ 18 more rows
…
