…
## Value

The median of the days lost. Either a numeric value (if overall `TRUE`)
or a data frame indicating the median days lost per athlete.

## Examples

``` r
calc_median_dayslost(injd)
#> median_dayslost 
#>              12 
calc_median_dayslost(injd, overall = FALSE)
#> # A tibble: 23 × 2
#>    person_id               median_dayslost
#>    <fct>                             <dbl>
#>  1 adam-lallana                         44
#>  2 alberto-moreno                       50
#>  3 alex-oxlade-chamberlain             316
#>  4 andrew-robertson                      3
#>  5 daniel-sturridge                     51
#>  6 dejan-lovren                         17
#>  7 divock-origi                          5
#>  8 emre-can                             68
#>  9 fabinho                               9
#> 10 georginio-wijnaldum                   7
#> # ℹ 13 more rows
…
