…
## Value

The number of days lost. Either a numeric value (if overall `TRUE`) or a
data frame indicating the number of cases per athlete.

## Examples

``` r
calc_ndayslost(injd)
#> ndayslost 
#>      2049 
calc_ndayslost(injd, overall = FALSE)
#> # A tibble: 28 × 2
#>    person_id               ndayslost
#>    <fct>                       <dbl>
#>  1 adam-lallana                  302
#>  2 alberto-moreno                 50
#>  3 alex-oxlade-chamberlain       316
#>  4 alisson                         0
#>  5 andrew-robertson               22
#>  6 daniel-sturridge              122
#>  7 danny-ings                      0
#>  8 dejan-lovren                  160
#>  9 divock-origi                    5
#> 10 dominic-solanke                 0
#> # ℹ 18 more rows
…
