Calculate prevalence proportion — calc_prevalence • injurytools
…
    Examples

# \donttest{
df_exposures <- prepare_exp(raw_df_exposures, person_id = "player_name",
                            date = "year", time_expo = "minutes_played")
df_injuries  <- prepare_inj(raw_df_injuries, person_id = "player_name",
                            date_injured = "from", date_recovered = "until")
injd         <- prepare_all(data_exposures = df_exposures,
                            data_injuries  = df_injuries,
                            exp_unit = "matches_minutes")
# }

calc_prevalence(injd, time_period = "monthly", by = "injury_type")
#> # A tibble: 98 × 6
#>    season           month status         n n_athlete  prop
#>    <fct>            <fct> <fct>      <int>     <int> <dbl>
#>  1 season 2017/2018 Jul   Available     21        23  91.3
#>  2 season 2017/2018 Jul   Muscle         2        23   8.7
#>  3 season 2017/2018 Aug   Available     18        23  78.3
#>  4 season 2017/2018 Aug   Muscle         3        23  13  
#>  5 season 2017/2018 Aug   Unknown        2        23   8.7
#>  6 season 2017/2018 Sep   Available     22        23  95.7
#>  7 season 2017/2018 Sep   Muscle         1        23   4.3
#>  8 season 2017/2018 Oct   Available     19        23  82.6
#>  9 season 2017/2018 Oct   Concussion     1        23   4.3
#> 10 season 2017/2018 Oct   Muscle         2        23   8.7
#> # ℹ 88 more rows
calc_prevalence(injd, time_period = "monthly")
#> # A tibble: 48 × 6
#>    season           month status        n n_athlete  prop
#>    <fct>            <fct> <fct>     <int>     <int> <dbl>
#>  1 season 2017/2018 Jul   Available    21        23  91.3
#>  2 season 2017/2018 Jul   Injured       2        23   8.7
#>  3 season 2017/2018 Aug   Available    18        23  78.3
#>  4 season 2017/2018 Aug   Injured       5        23  21.7
#>  5 season 2017/2018 Sep   Available    22        23  95.7
#>  6 season 2017/2018 Sep   Injured       1        23   4.3
#>  7 season 2017/2018 Oct   Available    19        23  82.6
#>  8 season 2017/2018 Oct   Injured       4        23  17.4
#>  9 season 2017/2018 Nov   Available    18        23  78.3
#> 10 season 2017/2018 Nov   Injured       5        23  21.7
#> # ℹ 38 more rows
…
