Calculate the exposure time — calc_exposure • injurytools
…
    Value

    The total exposure time. Either a numeric value (if overall
TRUE) or a data frame indicating the total exposure time for each
athlete.

    Examples

calc_exposure(injd)
#> totalexpo 
#>     74690 
calc_exposure(injd, overall = FALSE)
#> # A tibble: 28 × 2
#>    person_id               totalexpo
#>    <fct>                       <dbl>
#>  1 adam-lallana                  700
#>  2 alberto-moreno               1264
#>  3 alex-oxlade-chamberlain      1483
#>  4 alisson                      3420
#>  5 andrew-robertson             5162
#>  6 daniel-sturridge              927
#>  7 danny-ings                    265
#>  8 dejan-lovren                 3109
#>  9 divock-origi                  366
#> 10 dominic-solanke               581
#> # ℹ 18 more rows
…
