…
## Value

The mean of the days lost. Either a numeric value (if overall `TRUE`) or
a data frame indicating the mean days lost per athlete.

## Examples

``` r
calc_mean_dayslost(injd)
#> mean_dayslost 
#>       24.9878 
calc_mean_dayslost(injd, overall = FALSE)
#> # A tibble: 23 × 2
#>    person_id               mean_dayslost
#>    <fct>                           <dbl>
#>  1 adam-lallana                    50.3 
#>  2 alberto-moreno                  50   
#>  3 alex-oxlade-chamberlain        316   
#>  4 andrew-robertson                 4.4 
#>  5 daniel-sturridge                40.7 
#>  6 dejan-lovren                    26.7 
#>  7 divock-origi                     5   
#>  8 emre-can                        68   
#>  9 fabinho                          7.33
#> 10 georginio-wijnaldum              8.5 
#> # ℹ 13 more rows
…
