…
## Value

The number of cases. Either a numeric value (if overall `TRUE`) or a
data frame indicating the number of cases per athlete.

## Examples

``` r
calc_ncases(injd)
#> ncases 
#>     82 
calc_ncases(injd, overall = FALSE)
#> # A tibble: 28 × 2
#>    person_id               ncases
#>    <fct>                    <dbl>
#>  1 adam-lallana                 6
#>  2 alberto-moreno               1
#>  3 alex-oxlade-chamberlain      1
#>  4 alisson                      0
#>  5 andrew-robertson             5
#>  6 daniel-sturridge             3
#>  7 danny-ings                   0
#>  8 dejan-lovren                 6
#>  9 divock-origi                 1
#> 10 dominic-solanke              0
#> # ℹ 18 more rows
…
