Calculate the interquartile range days lost — calc_iqr_dayslost • injurytools
…
    Value

    The interquartile range of the days lost. Either a numeric value (if
overall TRUE) or a data frame indicating the interquartile range of
the days lost per athlete.

    Examples

calc_iqr_dayslost(injd)
#> qt25_dayslost qt75_dayslost 
#>             6            25 
calc_iqr_dayslost(injd, overall = FALSE)
#> # A tibble: 23 × 3
#>    person_id               qt25_dayslost qt75_dayslost
#>    <fct>                           <dbl>         <dbl>
#>  1 adam-lallana                     29.5          56.2
#>  2 alberto-moreno                   50            50  
#>  3 alex-oxlade-chamberlain         316           316  
#>  4 andrew-robertson                  2             4  
#>  5 daniel-sturridge                 33.5          53  
#>  6 dejan-lovren                     10            32.2
#>  7 divock-origi                      5             5  
#>  8 emre-can                         68            68  
#>  9 fabinho                           5.5          10  
#> 10 georginio-wijnaldum               5.5          12.2
#> # ℹ 13 more rows
…
