…
injd <- prepare_all(
  data_exposures = df_exposures,
  data_injuries  = df_injuries,
  exp_unit       = "matches_minutes"
)
# }

# \donttest{
cut_injd(injd, date0 = 2018)
#> Warning: Injury/illness data has been cut to the given follow-up period (in exposure data)
#> # A tibble: 74 × 19
#>    person_id        t0         tf         date_injured date_recovered tstart    
#>    <fct>            <date>     <date>     <date>       <date>         <date>    
#>  1 adam-lallana     2018-07-01 2019-06-30 2018-09-04   2018-10-19     2018-07-01
#>  2 adam-lallana     2018-07-01 2019-06-30 2018-11-09   2018-12-04     2018-10-19
#>  3 adam-lallana     2018-07-01 2019-06-30 2019-01-06   2019-01-18     2018-12-04
#>  4 adam-lallana     2018-07-01 2019-06-30 2019-04-01   2019-05-31     2019-01-18
#>  5 adam-lallana     2018-07-01 2019-06-30 NA           NA             2019-05-31
#>  6 alisson          2018-07-01 2019-06-30 NA           NA             2018-07-01
#>  7 andrew-robertson 2018-07-01 2019-06-30 2018-12-03   2018-12-07     2018-07-01
#>  8 andrew-robertson 2018-07-01 2019-06-30 2019-02-25   2019-02-26     2018-12-07
#>  9 andrew-robertson 2018-07-01 2019-06-30 2019-05-08   2019-05-11     2019-02-26
#> 10 andrew-robertson 2018-07-01 2019-06-30 2019-06-12   2019-06-24     2019-05-11
#> # ℹ 64 more rows
#> # ℹ 13 more variables: tstop <date>, tstart_minPlay <dbl>, tstop_minPlay <dbl>,
#> #   status <dbl>, enum <dbl>, days_lost <dbl>, player_id <fct>, season <fct>,
#> #   games_lost <dbl>, injury <chr>, injury_acl <fct>, injury_type <fct>,
#> #   injury_severity <fct>
…
