Injury summary statistics — injsummary • injurytools
…
injsummary(injd)
#> Warning: 
#> * Exposure time unit is matches_minutes
#>   So... Injury incidence and injury burden are calculated per 100 player-matches of exposure (90 minutes times 100)
#> 
#> Warning: 
#> * Exposure time unit is matches_minutes
#>   So... Injury incidence and injury burden are calculated per 100 player-matches of exposure (90 minutes times 100)
#> 
#> $playerwise
#> # A tibble: 28 × 8
#>    player                ninju…¹ ndays…² media…³ iqr_d…⁴ total…⁵ injin…⁶ injbu…⁷
#>    <fct>                   <dbl>   <dbl>   <dbl> <chr>     <dbl>   <dbl>   <dbl>
#>  1 adam-lallana                6     302    43   18.5-5…     700   77.1   3883. 
#>  2 alberto-moreno              1      50    25   12.5-3…    1264    7.12   356. 
#>  3 alex-oxlade-chamberl…       1     316   316   316-316    1483    6.07  1918. 
#>  4 alisson                     0       0     0   0-0        3420    0        0  
#>  5 andrew-robertson            5      22     2.5 1.25-3…    5162    8.72    38.4
#>  6 daniel-sturridge            3     122    33.5 12-52       927   29.1   1184. 
#>  7 danny-ings                  0       0     0   0-0         265    0        0  
#>  8 dejan-lovren                6     160    13   9-28.5     3109   17.4    463. 
#>  9 divock-origi                1       5     2.5 1.25-3…     366   24.6    123. 
#> 10 dominic-solanke             0       0     0   0-0         581    0        0  
#> # … with 18 more rows, and abbreviated variable names ¹​ninjuries, ²​ndayslost,
#> #   ³​median_dayslost, ⁴​iqr_dayslost, ⁵​totalexpo, ⁶​injincidence, ⁷​injburden
…
