Cut the range of the follow-up — cut_injd • injurytools
…
# Cut the follow-up period of the object
# (please, use it carefully)
cut_injd(injd, date0 = 2018)
#> Warning: Injury data has been cut to the given follow-up period (in exposure data)
#> # A tibble: 74 × 19
#>    player      t0         tf         date_inj…¹ date_rec…² tstart     tstop     
#>    <fct>       <date>     <date>     <date>     <date>     <date>     <date>    
#>  1 adam-lalla… 2018-07-01 2019-06-30 2018-09-04 2018-10-19 2018-07-01 2018-09-04
#>  2 adam-lalla… 2018-07-01 2019-06-30 2018-11-09 2018-12-04 2018-10-19 2018-11-09
#>  3 adam-lalla… 2018-07-01 2019-06-30 2019-01-06 2019-01-18 2018-12-04 2019-01-06
#>  4 adam-lalla… 2018-07-01 2019-06-30 2019-04-01 2019-05-31 2019-01-18 2019-04-01
#>  5 adam-lalla… 2018-07-01 2019-06-30 NA         NA         2019-05-31 2019-06-30
#>  6 alisson     2018-07-01 2019-06-30 NA         NA         2018-07-01 2019-06-30
#>  7 andrew-rob… 2018-07-01 2019-06-30 2018-12-03 2018-12-07 2018-07-01 2018-12-03
#>  8 andrew-rob… 2018-07-01 2019-06-30 2019-02-25 2019-02-26 2018-12-07 2019-02-25
#>  9 andrew-rob… 2018-07-01 2019-06-30 2019-05-08 2019-05-11 2019-02-26 2019-05-08
#> 10 andrew-rob… 2018-07-01 2019-06-30 2019-06-12 2019-06-24 2019-05-11 2019-06-12
#> # … with 64 more rows, 12 more variables: tstart_minPlay <dbl>,
#> #   tstop_minPlay <dbl>, status <dbl>, enum <dbl>, days_lost <dbl>,
#> #   player_id <fct>, season <fct>, games_lost <dbl>, injury <chr>,
#> #   injury_acl <fct>, injury_type <fct>, injury_severity <fct>, and abbreviated
#> #   variable names ¹​date_injured, ²​date_recovered
…
