Injury summary statistics — injsummary • injurytools
…
injsummary(injd)
#> Warning: 
#> * Exposure time unit is matches_minutes
#>   So... Injury incidence and injury burden are calculated per 100 player-matches of exposure (90 minutes times 100)
#> 
#> Warning: 
#> * Exposure time unit is matches_minutes
#>   So... Injury incidence and injury burden are calculated per 100 player-matches of exposure (90 minutes times 100)
#> 
#> $playerwise
#> # A tibble: 28 × 6
#>    player                  ninjuries ndayslost totalexpo injincidence injburden
#>    <fct>                       <dbl>     <dbl>     <dbl>        <dbl>     <dbl>
#>  1 adam-lallana                    6       302       700        77.1     3883. 
#>  2 alberto-moreno                  1        50      1264         7.12     356. 
#>  3 alex-oxlade-chamberlain         1       316      1483         6.07    1918. 
#>  4 alisson                         0         0      3420         0          0  
#>  5 andrew-robertson                5        22      5162         8.72      38.4
#>  6 daniel-sturridge                3       122       927        29.1     1184. 
#>  7 danny-ings                      0         0       265         0          0  
#>  8 dejan-lovren                    6       160      3109        17.4      463. 
#>  9 divock-origi                    1         5       366        24.6      123. 
#> 10 dominic-solanke                 0         0       581         0          0  
#> # … with 18 more rows
…
